INDEX VERSION 1.127+D:\Programy\PSI\.metadata\.plugins\org.eclipse.jdt.core
4272404932.index
3273958291.index
1216891833.index
1387640341.index
483579370.index
3007551407.index
2112269343.index
2500211475.index
2099607312.index
2941002164.index
2587751200.index
804811218.index
1104375184.index
3970125700.index
405809409.index
1884859289.index
2520957039.index
757752484.index
2223543818.index
